{
    "other": {
        "Debug": false,
        "location_colour": "cyan",
        "manual": {
            "arg_colour": "blue",
            "header_colour": "magenta"
        },
        "prompt_colour": "green"
    },
    "player": {
        "inventory": {
            "drink": {
                "water": 0
            },
            "eat": {
                "chicken": 0,
                "lunch": 0,
                "snack": 0
            },
            "items": {
                "gun": 0,
                "has_trapdoor_key": false
            }
        },
        "last_location": "south",
        "prev_location": "south"
    },
    "room": {
        "cabinet": {
            "looted": false,
            "opened": false
        },
        "carpet": {
            "lifted": false,
            "moved": false,
            "tries": 0
        },
        "trapdoor": {
            "has_ever_entered": false,
            "locked": true,
            "opened": false
        },
        "window": {
            "has_ever_entered": false,
            "opened": false,
            "tries": 0
        }
    }
}
